Traceback (most recent call last):
  File "/home/zik/.local/bin/wandb", line 5, in <module>
    from wandb.cli.cli import cli
  File "/home/zik/.local/lib/python3.8/site-packages/wandb/__init__.py", line 27, in <module>
    from wandb import sdk as wandb_sdk
  File "/home/zik/.local/lib/python3.8/site-packages/wandb/sdk/__init__.py", line 3, in <module>
    from . import wandb_helper as helper  # noqa: F401
  File "/home/zik/.local/lib/python3.8/site-packages/wandb/sdk/wandb_helper.py", line 6, in <module>
    from .lib import config_util
  File "/home/zik/.local/lib/python3.8/site-packages/wandb/sdk/lib/config_util.py", line 10, in <module>
    from wandb.util import load_yaml
  File "/home/zik/.local/lib/python3.8/site-packages/wandb/util.py", line 52, in <module>
    import requests
ModuleNotFoundError: No module named 'requests'
Traceback (most recent call last):
  File "/home/zik/.local/bin/wandb", line 5, in <module>
    from wandb.cli.cli import cli
  File "/home/zik/.local/lib/python3.8/site-packages/wandb/__init__.py", line 27, in <module>
    from wandb import sdk as wandb_sdk
  File "/home/zik/.local/lib/python3.8/site-packages/wandb/sdk/__init__.py", line 3, in <module>
    from . import wandb_helper as helper  # noqa: F401
  File "/home/zik/.local/lib/python3.8/site-packages/wandb/sdk/wandb_helper.py", line 6, in <module>
    from .lib import config_util
  File "/home/zik/.local/lib/python3.8/site-packages/wandb/sdk/lib/config_util.py", line 10, in <module>
    from wandb.util import load_yaml
  File "/home/zik/.local/lib/python3.8/site-packages/wandb/util.py", line 52, in <module>
    import requests
ModuleNotFoundError: No module named 'requests'
wandb: Tracking run with wandb version 0.15.12
wandb: W&B syncing is set to `offline` in this directory.  
wandb: Run `wandb online` or set WANDB_MODE=online to enable cloud syncing.
/home/zik/learning-tsp/ENTER/envs/rl4co-env/lib/python3.10/site-packages/lightning/pytorch/loggers/wandb.py:396: UserWarning: There is a wandb run already in progress and newly created instances of `WandbLogger` will reuse this run. If this is not desired, call `wandb.finish()` before instantiating `WandbLogger`.
  rank_zero_warn(
/home/zik/learning-tsp/ENTER/envs/rl4co-env/lib/python3.10/site-packages/lightning/pytorch/utilities/parsing.py:196: UserWarning: Attribute 'env' is an instance of `nn.Module` and is already saved during checkpointing. It is recommended to ignore them using `self.save_hyperparameters(ignore=['env'])`.
  rank_zero_warn(
/home/zik/learning-tsp/ENTER/envs/rl4co-env/lib/python3.10/site-packages/lightning/pytorch/utilities/parsing.py:196: UserWarning: Attribute 'policy' is an instance of `nn.Module` and is already saved during checkpointing. It is recommended to ignore them using `self.save_hyperparameters(ignore=['policy'])`.
  rank_zero_warn(
/home/zik/learning-tsp/ENTER/envs/rl4co-env/lib/python3.10/site-packages/lightning/fabric/plugins/environments/slurm.py:165: PossibleUserWarning: The `srun` command is available on your system but is not used. HINT: If your intention is to run Lightning on SLURM, prepend your python command with `srun` like so: srun python attn50_gat.py ...
  rank_zero_warn(
Using 16bit Automatic Mixed Precision (AMP)
Trainer already configured with model summary callbacks: [<class 'lightning.pytorch.callbacks.rich_model_summary.RichModelSummary'>]. Skipping setting a default `ModelSummary` callback.
GPU available: True (cuda), used: True
TPU available: False, using: 0 TPU cores
IPU available: False, using: 0 IPUs
HPU available: False, using: 0 HPUs
val_file not set. Generating dataset instead
test_file not set. Generating dataset instead
LOCAL_RANK: 0 - CUDA_VISIBLE_DEVICES: [0]
/home/zik/learning-tsp/ENTER/envs/rl4co-env/lib/python3.10/site-packages/lightning/pytorch/trainer/connectors/data_connector.py:432: PossibleUserWarning: The dataloader, val_dataloader, does not have many workers which may be a bottleneck. Consider increasing the value of the `num_workers` argument` (try 80 which is the number of cpus on this machine) in the `DataLoader` init to improve performance.
  rank_zero_warn(
/home/zik/learning-tsp/ENTER/envs/rl4co-env/lib/python3.10/site-packages/lightning/pytorch/trainer/connectors/data_connector.py:432: PossibleUserWarning: The dataloader, train_dataloader, does not have many workers which may be a bottleneck. Consider increasing the value of the `num_workers` argument` (try 80 which is the number of cpus on this machine) in the `DataLoader` init to improve performance.
  rank_zero_warn(
`Trainer.fit` stopped: `max_epochs=100` reached.
val_file not set. Generating dataset instead
test_file not set. Generating dataset instead
LOCAL_RANK: 0 - CUDA_VISIBLE_DEVICES: [0]
/home/zik/learning-tsp/ENTER/envs/rl4co-env/lib/python3.10/site-packages/lightning/pytorch/trainer/connectors/data_connector.py:432: PossibleUserWarning: The dataloader, test_dataloader, does not have many workers which may be a bottleneck. Consider increasing the value of the `num_workers` argument` (try 80 which is the number of cpus on this machine) in the `DataLoader` init to improve performance.
  rank_zero_warn(
wandb: Waiting for W&B process to finish... (success).
wandb: 
wandb: Run history:
wandb:               epoch ▁▁▁▂▂▂▂▂▂▃▃▃▃▃▃▄▄▄▄▄▅▅▅▅▅▆▆▆▆▆▆▇▇▇▇▇▇███
wandb:         test/reward ▁
wandb:          train/loss ▁▆▆█▇██▇▇██▇▇▇█████▇▇█▇█▇▇▇▇▇███▇███████
wandb:        train/reward ▄▃▁▆▅█▆▂▂█▇▂▃▁▇▇▇▆▄▄▂▇▂█▂▄▄▁▄█▄▅▁▃▆▂▇▅▅▅
wandb: trainer/global_step ▁▁▁▂▂▂▂▂▂▃▃▃▃▃▃▄▄▄▄▄▅▅▅▅▅▅▆▆▆▆▆▇▇▇▇▇▇███
wandb:          val/reward ▁▃▄▅▅▅▆▆▆▆▆▆▆▇▇▇▇▇▇▇▇▇▇▇▇▇▇█████████████
wandb: 
wandb: Run summary:
wandb:               epoch 100
wandb:         test/reward -4.12686
wandb:          train/loss -0.17072
wandb:        train/reward -4.95488
wandb: trainer/global_step 19600
wandb:          val/reward -4.93059
wandb: 
wandb: You can sync this run to the cloud by running:
wandb: wandb sync /home/zik/rl4co-2050/wandb/offline-run-20231126_020057-l4x5z2nt
wandb: Find logs at: ./wandb/offline-run-20231126_020057-l4x5z2nt/logs
