Traceback (most recent call last):
  File "/home/zik/.local/bin/wandb", line 5, in <module>
    from wandb.cli.cli import cli
  File "/home/zik/.local/lib/python3.8/site-packages/wandb/__init__.py", line 27, in <module>
    from wandb import sdk as wandb_sdk
  File "/home/zik/.local/lib/python3.8/site-packages/wandb/sdk/__init__.py", line 3, in <module>
    from . import wandb_helper as helper  # noqa: F401
  File "/home/zik/.local/lib/python3.8/site-packages/wandb/sdk/wandb_helper.py", line 6, in <module>
    from .lib import config_util
  File "/home/zik/.local/lib/python3.8/site-packages/wandb/sdk/lib/config_util.py", line 10, in <module>
    from wandb.util import load_yaml
  File "/home/zik/.local/lib/python3.8/site-packages/wandb/util.py", line 52, in <module>
    import requests
ModuleNotFoundError: No module named 'requests'
Traceback (most recent call last):
  File "/home/zik/.local/bin/wandb", line 5, in <module>
    from wandb.cli.cli import cli
  File "/home/zik/.local/lib/python3.8/site-packages/wandb/__init__.py", line 27, in <module>
    from wandb import sdk as wandb_sdk
  File "/home/zik/.local/lib/python3.8/site-packages/wandb/sdk/__init__.py", line 3, in <module>
    from . import wandb_helper as helper  # noqa: F401
  File "/home/zik/.local/lib/python3.8/site-packages/wandb/sdk/wandb_helper.py", line 6, in <module>
    from .lib import config_util
  File "/home/zik/.local/lib/python3.8/site-packages/wandb/sdk/lib/config_util.py", line 10, in <module>
    from wandb.util import load_yaml
  File "/home/zik/.local/lib/python3.8/site-packages/wandb/util.py", line 52, in <module>
    import requests
ModuleNotFoundError: No module named 'requests'
  File "/home/zik/rl4co-2050/attn50_transformer.py", line 1
    from rl4co.envs import TSPEnv                                                                                                                                                                                                                                                                                                                                                                                                                                                         attn50_transformer.py                                                         
                                                                                                                                                                                                                                                                                                                                                                                                                                                                                          ^^^^^^^^^^^^^^^^^^
SyntaxError: invalid syntax
